…
``` r
dados
```

    ## # A tibble: 80 x 3
    ##    Categoria                               Ano   Valor
    ##    <fct>                                 <int>   <dbl>
    ##  1 Pessoal                                2008 0.0456 
    ##  2 Custeio de Saúde                       2008 0.00253
    ##  3 Custeio de Educação                    2008 0.00201
    ##  4 Custeio Social                         2008 0.0154 
    ##  5 Custeio Administrativo                 2008 0.0107 
    ##  6 Benefícios Previdenciários RGPS        2008 0.0594 
    ##  7 Investimentos                          2008 0.0213 
    ##  8 Transferências a Estados e Municípios  2008 0.0554 
    ##  9 Pessoal                                2009 0.0499 
    ## 10 Custeio de Saúde                       2009 0.00250
    ## # ... with 70 more rows
…
